|  _  \                                   _|  _  \         | | | |    
| | | |_   _ _ __   __ _  ___  ___  _ __ (_) | | |___  __ _| |_| |__  
| | | | | | | '_ \ / _` |/ _ \/ _ \| '_ \  | | | / _ \/ _` | __| '_ \ 
| |/ /| |_| | | | | (_| |  __/ (_) | | | |_| |/ /  __/ (_| | |_| | | |
|___/  \__,_|_| |_|\__, |\___|\___/|_| |_(_)___/ \___|\__,_|\__|_| |_|
                    __/ |                                             
                   |___/                                              